-- Merging decision tree log ---
manifest
ADDED from D:\Development\SDKs\flutter_windows_1.22.5-stable\.pub-cache\hosted\pub.dartlang.org\sqflite-1.3.2+4\android\src\main\AndroidManifest.xml:1:1-3:12
INJECTED from D:\Development\SDKs\flutter_windows_1.22.5-stable\.pub-cache\hosted\pub.dartlang.org\sqflite-1.3.2+4\android\src\main\AndroidManifest.xml:1:1-3:12
INJECTED from D:\Development\SDKs\flutter_windows_1.22.5-stable\.pub-cache\hosted\pub.dartlang.org\sqflite-1.3.2+4\android\src\main\AndroidManifest.xml:1:1-3:12
	package
		ADDED from D:\Development\SDKs\flutter_windows_1.22.5-stable\.pub-cache\hosted\pub.dartlang.org\sqflite-1.3.2+4\android\src\main\AndroidManifest.xml:2:5-35
		INJECTED from D:\Development\SDKs\flutter_windows_1.22.5-stable\.pub-cache\hosted\pub.dartlang.org\sqflite-1.3.2+4\android\src\main\AndroidManifest.xml
		INJECTED from D:\Development\SDKs\flutter_windows_1.22.5-stable\.pub-cache\hosted\pub.dartlang.org\sqflite-1.3.2+4\android\src\main\AndroidManifest.xml
	xmlns:android
		ADDED from D:\Development\SDKs\flutter_windows_1.22.5-stable\.pub-cache\hosted\pub.dartlang.org\sqflite-1.3.2+4\android\src\main\AndroidManifest.xml:1:11-69
uses-sdk
INJECTED from D:\Development\SDKs\flutter_windows_1.22.5-stable\.pub-cache\hosted\pub.dartlang.org\sqflite-1.3.2+4\android\src\main\AndroidManifest.xml reason: use-sdk injection requested
INJECTED from D:\Development\SDKs\flutter_windows_1.22.5-stable\.pub-cache\hosted\pub.dartlang.org\sqflite-1.3.2+4\android\src\main\AndroidManifest.xml
INJECTED from D:\Development\SDKs\flutter_windows_1.22.5-stable\.pub-cache\hosted\pub.dartlang.org\sqflite-1.3.2+4\android\src\main\AndroidManifest.xml
	android:minSdkVersion
		INJECTED from D:\Development\SDKs\flutter_windows_1.22.5-stable\.pub-cache\hosted\pub.dartlang.org\sqflite-1.3.2+4\android\src\main\AndroidManifest.xml
		ADDED from D:\Development\SDKs\flutter_windows_1.22.5-stable\.pub-cache\hosted\pub.dartlang.org\sqflite-1.3.2+4\android\src\main\AndroidManifest.xml
		INJECTED from D:\Development\SDKs\flutter_windows_1.22.5-stable\.pub-cache\hosted\pub.dartlang.org\sqflite-1.3.2+4\android\src\main\AndroidManifest.xml
